Food,Description,Cost,Fat (g),Sodium (mg),Potassium (mg),Protein (g),Fruits & Veggies(cups),Grains (oz),Dairy (cups),Meat & Alt (oz),Calories
Bananas,A long^ curvy^ yellow fruit,24,1,4,1267,4,2.25,0,0,0,315
Orange,A round and juicy citrus fruit,16,0,0,327,1,0.75,0,0,0,62
Apple,A round fruit which typically has thin red skin and crisp flesh.,24,0,1,148,0,1.25,0,0,0,72
Watermelon,A hard green fruit with a sweet red pulp,32,0,3,320,2,2,0,0,0,86
Pineapple,A large juicy tropical fruit ,32,0,2,180,1,1,0,0,0,82
Cherries,A small^ red^ round stone fruit,24,0,3,178,1,0.75,0,0,0,52
Doughnut,A small fried ring of sweetened dough,8,15,202,65,5,0,1.5,0,0,269
Ice cream,A soft frozen food made with sweetened and flavored milk fat,5,8,70,151,3,0,0,0.25,0,171
Fried Egg,An egg cooked on one side leaving the yolk liquid,18,8,210,67,6,0,0,0,1,99
Cheese,A food made from the pressed curds of milk,20,8,159,39,7,0,0,0.75,0,105
Muffin,A small domed cake or quick bread made from batter or dough,16,21,462,140,7,0,2,0.25,0.5,409
Bread,A food made of flour^ water^ and yeast mixed together and baked,24,1,128,30,2,1,0,0,0,69
Coffee,A drink made from roasted and ground coffee beans,4,0,5,116,0,0,0,0,0,2
Hot Dog,A small cooked sausage that is usually served in a long bun,24,18,789,238,11,0,1.5,0,1.5,306
Root Beer,An effervescent soft drink made from the sassafras tree,16,0,48,4,0,0,0,0,0,152
Cheeseburger,A round beef patty^ grilled and served on a bun with cheese,32,16,798,234,17,0,2,0.5,1.5,343
Butter Stick,A stick of butter...,16,12,91,3,0,0,0,0,0,102
Pizza,a cooked flatbread topped with tomato sauce and cheese,24,11,620,176,11,0,1.5,0.5,0,255
Carrot,A tapering orange colored root eaten as a vegetable,8,0,42,195,1,0.5,0,0,0,25
Milk,A whitish liquid containing proteins^ fats^ lactose^ and vitamins,16,5,115,342,8,0,0,1,0,122
French Fries,A carton of potatoes cut into strips and deep-fried.,24,13,179,492,3,0.5,0,0,0,265
Grey Mullet,A handsome^ textured sea fish with a strong flavour,48,1,67,210,20,0,0,0,3,90
Avocado,A pear-shaped fruit with a smooth oily edible flesh,24,22,11,728,3,1,0,0,0,240
Lollipop,A flat^ rounded candy on the end of a stick.,8,0,2,0,0,0,0,0,0,24
Chocolate Bar,A chocolate confection in an oblong or rectangular form,4,13,35,164,3,0,0,0.25,0,235
